{
  "AUTHOR": "SEREbit",
  "SHORT": "Ghostbin integration.",
  "DESCRIPTION": "Allows the creation of pastes through the Ghostbin API",
  "DISABLED": false,
  "NAME": "Paste",
  "TAGS": [
    "paste",
    "pastebin",
    "ghostbin"
  ],
  "INSTALL_MSG": ""
}
